1semestre/isd/praticas/exerexper/simulation/qsim/exrecicio.msim.vcd
$comment
	File created using the following command:
		vcd file exrecicio.msim.vcd -direction
$end
$date
	Fri Dec 30 12:21:33 2022
$end
$version
	ModelSim Version 2020.1
$end
$timescale
	1ps
$end

$scope module exrecicio_vlg_vec_tst $end
$var reg 1 ! CLK $end
$var wire 1 " Q [2] $end
$var wire 1 # Q [1] $end
$var wire 1 $ Q [0] $end

$scope module i1 $end
$var wire 1 % gnd $end
$var wire 1 & vcc $end
$var wire 1 ' unknown $end
$var tri1 1 ( devclrn $end
$var tri1 1 ) devpor $end
$var tri1 1 * devoe $end
$var wire 1 + Q[2]~output_o $end
$var wire 1 , Q[1]~output_o $end
$var wire 1 - Q[0]~output_o $end
$var wire 1 . CLK~input_o $end
$var wire 1 / inst1~q $end
$var wire 1 0 inst2~q $end
$var wire 1 1 inst~0_combout $end
$var wire 1 2 inst~q $end
$upscope $end
$upscope $end
$enddefinitions $end
#0
$dumpvars
0!
0$
0#
0"
0%
1&
x'
1(
1)
1*
0+
0,
0-
0.
0/
00
11
02
$end
#20000
1!
1.
12
1+
1"
#40000
0!
0.
#60000
1!
1.
1/
1,
1#
#80000
0!
0.
#100000
1!
1.
10
1-
1$
01
#120000
0!
0.
#140000
1!
1.
02
0+
0"
#160000
0!
0.
#180000
1!
1.
0/
0,
0#
#200000
0!
0.
#220000
1!
1.
00
0-
0$
11
#240000
0!
0.
#260000
1!
1.
12
1+
1"
#280000
0!
0.
#300000
1!
1.
1/
1,
1#
#320000
0!
0.
#340000
1!
1.
10
1-
1$
01
#360000
0!
0.
#380000
1!
1.
02
0+
0"
#400000
0!
0.
#420000
1!
1.
0/
0,
0#
#440000
0!
0.
#460000
1!
1.
00
0-
0$
11
#480000
0!
0.
#500000
1!
1.
12
1+
1"
#520000
0!
0.
#540000
1!
1.
1/
1,
1#
#560000
0!
0.
#580000
1!
1.
10
1-
1$
01
#600000
0!
0.
#620000
1!
1.
02
0+
0"
#640000
0!
0.
#660000
1!
1.
0/
0,
0#
#680000
0!
0.
#700000
1!
1.
00
0-
0$
11
#720000
0!
0.
#740000
1!
1.
12
1+
1"
#760000
0!
0.
#780000
1!
1.
1/
1,
1#
#800000
0!
0.
#820000
1!
1.
10
1-
1$
01
#840000
0!
0.
#860000
1!
1.
02
0+
0"
#880000
0!
0.
#900000
1!
1.
0/
0,
0#
#920000
0!
0.
#940000
1!
1.
00
0-
0$
11
#960000
0!
0.
#980000
1!
1.
12
1+
1"
