2semestre/lsd/aula4/parte1/simulation/qsim/FlipFlopD_Demo.msim.vcd
$comment
	File created using the following command:
		vcd file FlipFlopD_Demo.msim.vcd -direction
$end
$date
	Sun Mar 12 11:10:52 2023
$end
$version
	ModelSim Version 2020.1
$end
$timescale
	1ps
$end

$scope module flipflopd_vhd_vec_tst $end
$var wire 1 ! clk $end
$var wire 1 " d $end
$var wire 1 # q $end
$var wire 1 $ reset $end
$var wire 1 % set $end

$scope module i1 $end
$var wire 1 & gnd $end
$var wire 1 ' vcc $end
$var wire 1 ( unknown $end
$var wire 1 ) devoe $end
$var wire 1 * devclrn $end
$var wire 1 + devpor $end
$var wire 1 , ww_devoe $end
$var wire 1 - ww_devclrn $end
$var wire 1 . ww_devpor $end
$var wire 1 / ww_clk $end
$var wire 1 0 ww_d $end
$var wire 1 1 ww_set $end
$var wire 1 2 ww_reset $end
$var wire 1 3 ww_q $end
$var wire 1 4 \q~output_o\ $end
$var wire 1 5 \clk~input_o\ $end
$var wire 1 6 \d~input_o\ $end
$var wire 1 7 \set~input_o\ $end
$var wire 1 8 \reset~input_o\ $end
$var wire 1 9 \q~0_combout\ $end
$var wire 1 : \q~reg0_q\ $end
$upscope $end
$upscope $end
$enddefinitions $end
#0
$dumpvars
0!
1"
0#
0$
0%
0&
1'
x(
1)
1*
1+
1,
1-
1.
0/
10
01
02
03
04
05
16
07
08
19
0:
$end
#20000
1!
1/
15
1:
14
13
1#
#40000
0!
0"
0/
00
06
05
09
#60000
1!
1/
15
0:
04
03
0#
#80000
0!
1$
1%
0/
12
11
17
18
05
#100000
1!
1/
15
#120000
0!
0/
05
#140000
1!
1/
15
#160000
0!
0$
0/
02
08
05
19
#180000
1!
1/
15
1:
14
13
1#
#200000
0!
0%
0/
01
07
05
09
#220000
1!
1/
15
0:
04
03
0#
#240000
0!
1%
1$
1"
0/
11
12
10
16
18
17
05
#260000
1!
1/
15
#280000
0!
0$
0"
0/
02
00
06
08
05
19
#300000
1!
1/
15
1:
14
13
1#
#320000
0!
1$
0%
0/
12
01
07
18
05
09
#340000
1!
1/
15
0:
04
03
0#
#360000
0!
0$
1"
0/
02
10
16
08
05
19
#380000
1!
1/
15
1:
14
13
1#
#400000
0!
0/
05
#420000
1!
1/
15
#440000
0!
0"
0/
00
06
05
09
#460000
1!
1/
15
0:
04
03
0#
#480000
0!
1$
0/
12
18
05
#500000
1!
1/
15
#520000
0!
1"
0/
10
16
05
#540000
1!
1/
15
#560000
0!
0$
0/
02
08
05
19
#580000
1!
1/
15
1:
14
13
1#
#600000
0!
1$
0"
0/
12
00
06
18
05
09
#620000
1!
1/
15
0:
04
03
0#
#640000
0!
0$
1"
1%
0/
02
10
11
17
16
08
05
19
#660000
1!
1/
15
1:
14
13
1#
#680000
0!
0/
05
#700000
1!
1/
15
#720000
0!
1$
0/
12
18
05
09
#740000
1!
1/
15
0:
04
03
0#
#760000
0!
0$
0"
0%
0/
02
00
01
07
06
08
05
#780000
1!
1/
15
#800000
0!
1$
1"
0/
12
10
16
18
05
#820000
1!
1/
15
#840000
0!
0"
0/
00
06
05
#860000
1!
1/
15
#880000
0!
1"
0$
0/
10
02
08
16
05
19
#900000
1!
1/
15
1:
14
13
1#
#920000
0!
0"
1%
0/
00
11
17
06
05
#940000
1!
1/
15
#960000
0!
1"
0%
0/
10
01
07
16
05
#980000
1!
1/
15
