1semestre/isd/praticas/exercicio8/simulation/qsim/alineab.msim.vcd
$comment
	File created using the following command:
		vcd file alineab.msim.vcd -direction
$end
$date
	Mon Jan 02 18:09:37 2023
$end
$version
	ModelSim Version 2020.1
$end
$timescale
	1ps
$end

$scope module alineab_vlg_vec_tst $end
$var reg 1 ! CLK $end
$var wire 1 " Q [3] $end
$var wire 1 # Q [2] $end
$var wire 1 $ Q [1] $end
$var wire 1 % Q [0] $end

$scope module i1 $end
$var wire 1 & gnd $end
$var wire 1 ' vcc $end
$var wire 1 ( unknown $end
$var tri1 1 ) devclrn $end
$var tri1 1 * devpor $end
$var tri1 1 + devoe $end
$var wire 1 , Q[3]~output_o $end
$var wire 1 - Q[2]~output_o $end
$var wire 1 . Q[1]~output_o $end
$var wire 1 / Q[0]~output_o $end
$var wire 1 0 CLK~input_o $end
$var wire 1 1 inst|inst13~combout $end
$var wire 1 2 inst|ff3~q $end
$var wire 1 3 inst|inst7~combout $end
$var wire 1 4 inst|ff2~q $end
$var wire 1 5 inst|inst8~combout $end
$var wire 1 6 inst|ff1~q $end
$var wire 1 7 inst|inst10~combout $end
$var wire 1 8 inst|ff0~q $end
$upscope $end
$upscope $end
$enddefinitions $end
#0
$dumpvars
0!
0%
0$
0#
0"
0&
1'
x(
1)
1*
1+
0,
0-
0.
0/
00
11
02
03
04
05
06
07
08
$end
#20000
1!
10
12
1/
1%
13
#40000
0!
00
#60000
1!
10
14
1.
1$
15
#80000
0!
00
#100000
1!
10
16
1-
1#
17
#120000
0!
00
#140000
1!
10
18
1,
1"
07
05
03
01
#160000
0!
00
#180000
1!
10
08
06
04
02
0/
0.
0-
0,
0"
0#
0$
0%
11
#200000
0!
00
#220000
1!
10
12
1/
1%
13
#240000
0!
00
#260000
1!
10
14
1.
1$
15
#280000
0!
00
#300000
1!
10
16
1-
1#
17
#320000
0!
00
#340000
1!
10
18
1,
1"
07
05
03
01
#360000
0!
00
#380000
1!
10
08
06
04
02
0/
0.
0-
0,
0"
0#
0$
0%
11
#400000
0!
00
#420000
1!
10
12
1/
1%
13
#440000
0!
00
#460000
1!
10
14
1.
1$
15
#480000
0!
00
#500000
1!
10
16
1-
1#
17
#520000
0!
00
#540000
1!
10
18
1,
1"
07
05
03
01
#560000
0!
00
#580000
1!
10
08
06
04
02
0/
0.
0-
0,
0"
0#
0$
0%
11
#600000
0!
00
#620000
1!
10
12
1/
1%
13
#640000
0!
00
#660000
1!
10
14
1.
1$
15
#680000
0!
00
#700000
1!
10
16
1-
1#
17
#720000
0!
00
#740000
1!
10
18
1,
1"
07
05
03
01
#760000
0!
00
#780000
1!
10
08
06
04
02
0/
0.
0-
0,
0"
0#
0$
0%
11
#800000
0!
00
#820000
1!
10
12
1/
1%
13
#840000
0!
00
#860000
1!
10
14
1.
1$
15
#880000
0!
00
#900000
1!
10
16
1-
1#
17
#920000
0!
00
#940000
1!
10
18
1,
1"
07
05
03
01
#960000
0!
00
#980000
1!
10
08
06
04
02
0/
0.
0-
0,
0"
0#
0$
0%
11
