2semestre/lsd/aula4/parte3/simulation/qsim/Counter_Demo.msim.vcd
$comment
	File created using the following command:
		vcd file Counter_Demo.msim.vcd -direction
$end
$date
	Mon Mar 13 15:33:27 2023
$end
$version
	ModelSim Version 2020.1
$end
$timescale
	1ps
$end

$scope module counterupdown4_vhd_vec_tst $end
$var wire 1 ! clk $end
$var wire 1 " count [3] $end
$var wire 1 # count [2] $end
$var wire 1 $ count [1] $end
$var wire 1 % count [0] $end
$var wire 1 & reset $end
$var wire 1 ' upDown $end

$scope module i1 $end
$var wire 1 ( gnd $end
$var wire 1 ) vcc $end
$var wire 1 * unknown $end
$var wire 1 + devoe $end
$var wire 1 , devclrn $end
$var wire 1 - devpor $end
$var wire 1 . ww_devoe $end
$var wire 1 / ww_devclrn $end
$var wire 1 0 ww_devpor $end
$var wire 1 1 ww_clk $end
$var wire 1 2 ww_reset $end
$var wire 1 3 ww_upDown $end
$var wire 1 4 ww_count [3] $end
$var wire 1 5 ww_count [2] $end
$var wire 1 6 ww_count [1] $end
$var wire 1 7 ww_count [0] $end
$var wire 1 8 \count[0]~output_o\ $end
$var wire 1 9 \count[1]~output_o\ $end
$var wire 1 : \count[2]~output_o\ $end
$var wire 1 ; \count[3]~output_o\ $end
$var wire 1 < \clk~input_o\ $end
$var wire 1 = \reset~input_o\ $end
$var wire 1 > \s_count~3_combout\ $end
$var wire 1 ? \upDown~input_o\ $end
$var wire 1 @ \s_count[1]~5_cout\ $end
$var wire 1 A \s_count[1]~6_combout\ $end
$var wire 1 B \s_count[1]~7\ $end
$var wire 1 C \s_count[2]~8_combout\ $end
$var wire 1 D \s_count[2]~9\ $end
$var wire 1 E \s_count[3]~10_combout\ $end
$var wire 1 F s_count [3] $end
$var wire 1 G s_count [2] $end
$var wire 1 H s_count [1] $end
$var wire 1 I s_count [0] $end
$upscope $end
$upscope $end
$enddefinitions $end
#0
$dumpvars
0!
0&
0'
0(
1)
x*
1+
1,
1-
1.
1/
10
01
02
03
08
09
0:
0;
0<
0=
1>
0?
0@
1A
1B
1C
0D
1E
04
05
06
07
0F
0G
0H
0I
0"
0#
0$
0%
$end
#25000
1!
11
1<
1I
1H
1G
1F
0E
0C
1D
0A
0B
0>
1@
1A
1C
1E
1;
1:
19
18
14
15
16
17
1%
1$
1#
1"
#50000
0!
01
0<
#75000
1!
11
1<
0I
1>
0@
0A
08
07
0%
#100000
0!
01
0<
#125000
1!
11
1<
1I
0H
1A
1B
0>
1@
0A
0B
0C
09
18
1C
06
17
1%
0$
#150000
0!
01
0<
#175000
1!
11
1<
0I
1>
0@
1A
1B
08
0C
07
0%
#200000
0!
01
0<
#225000
1!
11
1<
1I
1H
0G
1C
0D
0A
0B
0>
1@
1A
0C
1D
0E
0:
19
18
1E
05
16
17
1%
1$
0#
#250000
0!
01
0<
#275000
1!
11
1<
0I
1>
0@
0A
08
07
0%
#300000
0!
01
0<
#325000
1!
11
1<
1I
0H
1A
1B
0>
1@
0A
0B
1C
0D
09
18
0E
0C
1D
06
17
1%
0$
1E
#350000
0!
01
0<
#375000
1!
11
1<
0I
1>
0@
1A
1B
08
1C
0D
07
0%
0E
#400000
0!
01
0<
#425000
1!
11
1<
1I
1H
1G
0F
1E
0C
1D
0A
0B
0>
1@
1A
1C
0E
0;
1:
19
18
04
15
16
17
1%
1$
1#
0"
#450000
0!
01
0<
#475000
1!
11
1<
0I
1>
0@
0A
08
07
0%
#500000
0!
01
0<
#525000
1!
11
1<
1I
0H
1A
1B
0>
1@
0A
0B
0C
09
18
1C
06
17
1%
0$
#550000
0!
1'
01
13
1?
0<
1A
1B
0C
1E
1C
0D
0E
#575000
1!
11
1<
0I
1H
0A
0B
1>
0@
1A
1B
0C
1D
19
08
1E
1C
0D
16
07
0%
1$
0E
#600000
0!
0'
01
03
0?
0<
0A
0B
0C
1D
1E
0E
1C
#625000
1!
11
1<
1I
0H
1A
1B
0>
1@
0A
0B
0C
09
18
1C
06
17
1%
0$
#650000
0!
1'
01
13
1?
0<
1A
1B
0C
1E
1C
0D
0E
#675000
1!
11
1<
0I
1H
0A
0B
1>
0@
1A
1B
0C
1D
19
08
1E
1C
0D
16
07
0%
1$
0E
#700000
0!
01
0<
#720000
1&
12
1=
0>
#725000
1!
11
1<
0H
0G
0C
0A
0:
09
05
06
0$
0#
#750000
0!
0'
01
03
0?
0<
1A
1C
1E
#760000
0&
02
0=
1>
#775000
1!
11
1<
1I
1H
1G
1F
0E
0C
1D
0A
0B
0>
1@
1A
1C
1E
1;
1:
19
18
14
15
16
17
1%
1$
1#
1"
#800000
0!
1&
01
12
1=
0<
#825000
1!
11
1<
0I
0H
0G
0F
0E
0C
0A
0@
1A
1B
0;
0:
09
08
1C
0D
04
05
06
07
0%
0$
0#
0"
1E
#840000
0&
02
0=
1>
#850000
0!
1'
01
13
1?
0<
0A
0C
0E
#875000
1!
11
1<
1I
0>
1@
1A
18
17
1%
#900000
0!
01
0<
#920000
1&
12
1=
#925000
1!
11
1<
0I
0@
0A
08
07
0%
#950000
0!
01
0<
#975000
1!
11
1<
