1semestre/isd/praticas/er/simulation/qsim/ii.msim.vcd
$comment
	File created using the following command:
		vcd file ii.msim.vcd -direction
$end
$date
	Fri Dec 30 15:59:28 2022
$end
$version
	ModelSim Version 2020.1
$end
$timescale
	1ps
$end

$scope module ii_vlg_vec_tst $end
$var reg 1 ! CLK $end
$var wire 1 " Q [3] $end
$var wire 1 # Q [2] $end
$var wire 1 $ Q [1] $end
$var wire 1 % Q [0] $end

$scope module i1 $end
$var wire 1 & gnd $end
$var wire 1 ' vcc $end
$var wire 1 ( unknown $end
$var tri1 1 ) devclrn $end
$var tri1 1 * devpor $end
$var tri1 1 + devoe $end
$var wire 1 , Q[3]~output_o $end
$var wire 1 - Q[2]~output_o $end
$var wire 1 . Q[1]~output_o $end
$var wire 1 / Q[0]~output_o $end
$var wire 1 0 CLK~input_o $end
$var wire 1 1 inst|38~q $end
$var wire 1 2 inst|39~q $end
$var wire 1 3 inst|40~q $end
$var wire 1 4 inst|41~q $end
$upscope $end
$upscope $end
$enddefinitions $end
#0
$dumpvars
0!
0%
0$
0#
0"
0&
1'
x(
1)
1*
1+
0,
0-
0.
0/
00
01
02
03
04
$end
#20000
1!
10
11
1/
1%
#40000
0!
00
#60000
1!
10
12
1.
1$
#80000
0!
00
#100000
1!
10
13
1-
1#
#120000
0!
00
#140000
1!
10
14
1,
1"
01
02
03
04
0,
0-
0.
0/
0%
0$
0#
0"
#160000
0!
00
#180000
1!
10
11
1/
1%
#200000
0!
00
#220000
1!
10
12
1.
1$
#240000
0!
00
#260000
1!
10
13
1-
1#
#280000
0!
00
#300000
1!
10
14
1,
1"
01
02
03
04
0,
0-
0.
0/
0%
0$
0#
0"
#320000
0!
00
#340000
1!
10
11
1/
1%
#360000
0!
00
#380000
1!
10
12
1.
1$
#400000
0!
00
#420000
1!
10
13
1-
1#
#440000
0!
00
#460000
1!
10
14
1,
1"
01
02
03
04
0,
0-
0.
0/
0%
0$
0#
0"
#480000
0!
00
#500000
1!
10
11
1/
1%
#520000
0!
00
#540000
1!
10
12
1.
1$
#560000
0!
00
#580000
1!
10
13
1-
1#
#600000
0!
00
#620000
1!
10
14
1,
1"
01
02
03
04
0,
0-
0.
0/
0%
0$
0#
0"
#640000
0!
00
#660000
1!
10
11
1/
1%
#680000
0!
00
#700000
1!
10
12
1.
1$
#720000
0!
00
#740000
1!
10
13
1-
1#
#760000
0!
00
#780000
1!
10
14
1,
1"
01
02
03
04
0,
0-
0.
0/
0%
0$
0#
0"
#800000
0!
00
#820000
1!
10
11
1/
1%
#840000
0!
00
#860000
1!
10
12
1.
1$
#880000
0!
00
#900000
1!
10
13
1-
1#
#920000
0!
00
#940000
1!
10
14
1,
1"
01
02
03
04
0,
0-
0.
0/
0%
0$
0#
0"
#960000
0!
00
#980000
1!
10
11
1/
1%
