2semestre/lsd/aula6/parte1/simulation/qsim/ShiftRegister_Demo.msim.vcd
$comment
	File created using the following command:
		vcd file ShiftRegister_Demo.msim.vcd -direction
$end
$date
	Mon Mar 27 14:43:39 2023
$end
$version
	ModelSim Version 2020.1
$end
$timescale
	1ps
$end

$scope module shiftregister4_vhd_vec_tst $end
$var wire 1 ! clk $end
$var wire 1 " dataOut [3] $end
$var wire 1 # dataOut [2] $end
$var wire 1 $ dataOut [1] $end
$var wire 1 % dataOut [0] $end
$var wire 1 & sin $end

$scope module i1 $end
$var wire 1 ' gnd $end
$var wire 1 ( vcc $end
$var wire 1 ) unknown $end
$var wire 1 * devoe $end
$var wire 1 + devclrn $end
$var wire 1 , devpor $end
$var wire 1 - ww_devoe $end
$var wire 1 . ww_devclrn $end
$var wire 1 / ww_devpor $end
$var wire 1 0 ww_clk $end
$var wire 1 1 ww_sin $end
$var wire 1 2 ww_dataOut [3] $end
$var wire 1 3 ww_dataOut [2] $end
$var wire 1 4 ww_dataOut [1] $end
$var wire 1 5 ww_dataOut [0] $end
$var wire 1 6 \dataOut[0]~output_o\ $end
$var wire 1 7 \dataOut[1]~output_o\ $end
$var wire 1 8 \dataOut[2]~output_o\ $end
$var wire 1 9 \dataOut[3]~output_o\ $end
$var wire 1 : \clk~input_o\ $end
$var wire 1 ; \sin~input_o\ $end
$var wire 1 < s_shiftReg [3] $end
$var wire 1 = s_shiftReg [2] $end
$var wire 1 > s_shiftReg [1] $end
$var wire 1 ? s_shiftReg [0] $end
$upscope $end
$upscope $end
$enddefinitions $end
#0
$dumpvars
0!
1&
0'
1(
x)
1*
1+
1,
1-
1.
1/
00
11
06
07
08
09
0:
1;
02
03
04
05
0<
0=
0>
0?
0"
0#
0$
0%
$end
#20000
1!
10
1:
1?
16
15
1%
#40000
0!
00
0:
#60000
1!
10
1:
1>
17
14
1$
#80000
0!
00
0:
#90000
0&
01
0;
#100000
1!
10
1:
0?
1=
18
06
13
05
0%
1#
#120000
0!
00
0:
#140000
1!
10
1:
0>
1<
19
07
12
04
0$
1"
#160000
0!
00
0:
#180000
1!
10
1:
0=
08
03
0#
#200000
0!
00
0:
#220000
1!
10
1:
0<
09
02
0"
#240000
0!
00
0:
#260000
1!
10
1:
#280000
0!
00
0:
#300000
1!
10
1:
#315000
1&
11
1;
#320000
0!
00
0:
#340000
1!
10
1:
1?
16
15
1%
#360000
0!
0&
00
01
0;
0:
#380000
1!
10
1:
0?
1>
17
06
14
05
0%
1$
#400000
0!
00
0:
#420000
1!
10
1:
0>
1=
18
07
13
04
0$
1#
#440000
0!
00
0:
#450000
1&
11
1;
#460000
1!
10
1:
1?
0=
1<
19
08
16
12
03
15
1%
0#
1"
#480000
0!
00
0:
#500000
1!
10
1:
1>
0<
09
17
02
14
1$
0"
#520000
0!
00
0:
#540000
1!
0&
10
01
0;
1:
1=
18
13
1#
#560000
0!
00
0:
#580000
1!
10
1:
0?
1<
19
06
12
05
0%
1"
#585000
1&
11
1;
#600000
0!
00
0:
#620000
1!
10
1:
1?
0>
07
16
04
15
1%
0$
#630000
0&
01
0;
#640000
0!
00
0:
#660000
1!
10
1:
0?
1>
0=
08
17
06
03
14
05
0%
1$
0#
#675000
1&
11
1;
#680000
0!
00
0:
#700000
1!
10
1:
1?
0>
1=
0<
09
18
07
16
02
13
04
15
1%
0$
1#
0"
#720000
0!
0&
00
01
0;
0:
#740000
1!
10
1:
0?
1>
0=
1<
19
08
17
06
12
03
14
05
0%
1$
0#
1"
#760000
0!
00
0:
#765000
1&
11
1;
#780000
1!
10
1:
1?
0>
1=
0<
09
18
07
16
02
13
04
15
1%
0$
1#
0"
#800000
0!
00
0:
#810000
0&
01
0;
#820000
1!
10
1:
0?
1>
0=
1<
19
08
17
06
12
03
14
05
0%
1$
0#
1"
#840000
0!
00
0:
#855000
1&
11
1;
#860000
1!
10
1:
1?
0>
1=
0<
09
18
07
16
02
13
04
15
1%
0$
1#
0"
#880000
0!
00
0:
#900000
1!
0&
10
01
0;
1:
1>
0=
1<
19
08
17
12
03
14
1$
0#
1"
#920000
0!
00
0:
#940000
1!
10
1:
0?
1=
0<
09
18
06
02
13
05
0%
1#
0"
#960000
0!
00
0:
#980000
1!
10
1:
0>
1<
19
07
12
04
0$
1"
#990000
1&
11
1;
