1semestre/isd/praticas/cloques/simulation/qsim/clockexe.msim.vcd
$comment
	File created using the following command:
		vcd file clockexe.msim.vcd -direction
$end
$date
	Sun Jan 01 22:42:44 2023
$end
$version
	ModelSim Version 2020.1
$end
$timescale
	1ps
$end

$scope module clockexe_vlg_vec_tst $end
$var reg 1 ! A0 $end
$var reg 1 " A1 $end
$var reg 1 # A2 $end
$var reg 1 $ A3 $end
$var reg 1 % CLK $end
$var reg 1 & X $end
$var wire 1 ' Y $end

$scope module i1 $end
$var wire 1 ( gnd $end
$var wire 1 ) vcc $end
$var wire 1 * unknown $end
$var tri1 1 + devclrn $end
$var tri1 1 , devpor $end
$var tri1 1 - devoe $end
$var wire 1 . Y~output_o $end
$var wire 1 / CLK~input_o $end
$var wire 1 0 X~input_o $end
$var wire 1 1 inst|inst~q $end
$var wire 1 2 inst|inst1~q $end
$var wire 1 3 A1~input_o $end
$var wire 1 4 inst|inst2~q $end
$var wire 1 5 A0~input_o $end
$var wire 1 6 inst|inst3~q $end
$var wire 1 7 inst9|inst7~0_combout $end
$var wire 1 8 inst9|inst7~1_combout $end
$var wire 1 9 inst1|inst~q $end
$var wire 1 : inst2|inst~q $end
$var wire 1 ; A3~input_o $end
$var wire 1 < A2~input_o $end
$var wire 1 = inst23|inst7~0_combout $end
$var wire 1 > inst3|inst~q $end
$var wire 1 ? inst23|inst7~1_combout $end
$upscope $end
$upscope $end
$enddefinitions $end
#0
$dumpvars
0!
0"
0#
0$
0%
0&
0'
0(
1)
x*
1+
1,
1-
0.
0/
00
01
02
03
04
05
06
07
08
09
0:
0;
0<
0=
0>
0?
$end
#20000
1%
1&
1/
10
#40000
0%
0&
0/
00
#50000
1&
10
#60000
1%
0&
1/
00
11
#80000
0%
1&
0/
10
#100000
1%
0&
1/
00
12
#120000
0%
0/
#130000
1&
10
#140000
1%
1/
14
#160000
0&
0%
00
0/
#170000
1&
10
#180000
1%
1/
16
17
18
1=
1?
1.
1'
#190000
0&
00
#200000
0%
0/
#220000
1%
1/
19
01
#230000
1&
10
#240000
0%
0&
0/
00
#260000
1%
1&
1/
10
1:
02
#270000
0&
00
#280000
0%
1&
0/
10
#290000
0&
00
#300000
1!
1"
1$
1%
15
13
1;
1/
0=
08
0?
0.
0'
1?
1.
1'
1>
04
#310000
1&
10
#320000
0%
0/
#340000
0&
1%
00
1/
06
09
#360000
0!
0"
0$
0%
05
03
0;
0/
07
18
0?
0.
1=
0'
08
0=
1?
1.
1'
0?
0.
0'
#380000
1%
1/
0:
#390000
1&
10
#400000
0%
0/
#420000
1%
1/
0>
11
#430000
0&
00
#440000
0%
1&
0/
10
#460000
1%
0&
1/
00
12
#480000
0%
0/
#500000
1&
1%
10
1/
14
#520000
0&
0%
00
0/
#540000
1%
1/
16
01
17
18
1=
1?
1.
1'
#560000
0%
0/
#580000
1%
1/
19
02
#590000
1&
10
#600000
0%
0&
0/
00
#620000
1%
1/
1:
04
#630000
1&
10
#640000
0%
0/
#660000
1%
1/
1>
06
11
07
08
0=
0?
0.
0'
#670000
0&
00
#680000
0%
1&
0/
10
#690000
0&
00
#700000
1%
1/
09
12
01
#710000
1&
10
#720000
0%
0/
#730000
0&
00
#740000
1%
1&
1/
10
0:
14
02
#760000
0%
0&
0/
00
#780000
1%
1&
1/
10
0>
16
04
17
18
1=
1?
1.
1'
#800000
0%
0&
0/
00
#820000
1%
1&
1/
10
06
19
07
08
0=
0?
0.
0'
#840000
0%
0&
0/
00
#850000
1&
10
#860000
1%
1/
1:
09
11
#880000
0&
0%
00
0/
#900000
1%
1/
1>
0:
12
01
#910000
1&
10
#920000
0%
0/
#940000
0&
1%
00
1/
0>
14
02
#950000
1&
10
#960000
0%
0&
0/
00
#970000
1&
10
#980000
1%
1/
16
04
11
17
18
1=
1?
1.
1'
