2semestre/lsd/aula3/parte1/simulation/qsim/AdderDemo.msim.vcd
$comment
	File created using the following command:
		vcd file AdderDemo.msim.vcd -direction
$end
$date
	Sun Mar 05 22:40:40 2023
$end
$version
	ModelSim Version 2020.1
$end
$timescale
	1ps
$end

$scope module adder4_vhd_vec_tst $end
$var wire 1 ! a [3] $end
$var wire 1 " a [2] $end
$var wire 1 # a [1] $end
$var wire 1 $ a [0] $end
$var wire 1 % b [3] $end
$var wire 1 & b [2] $end
$var wire 1 ' b [1] $end
$var wire 1 ( b [0] $end
$var wire 1 ) cin $end
$var wire 1 * cout $end
$var wire 1 + s [3] $end
$var wire 1 , s [2] $end
$var wire 1 - s [1] $end
$var wire 1 . s [0] $end

$scope module i1 $end
$var wire 1 / gnd $end
$var wire 1 0 vcc $end
$var wire 1 1 unknown $end
$var wire 1 2 devoe $end
$var wire 1 3 devclrn $end
$var wire 1 4 devpor $end
$var wire 1 5 ww_devoe $end
$var wire 1 6 ww_devclrn $end
$var wire 1 7 ww_devpor $end
$var wire 1 8 ww_a [3] $end
$var wire 1 9 ww_a [2] $end
$var wire 1 : ww_a [1] $end
$var wire 1 ; ww_a [0] $end
$var wire 1 < ww_b [3] $end
$var wire 1 = ww_b [2] $end
$var wire 1 > ww_b [1] $end
$var wire 1 ? ww_b [0] $end
$var wire 1 @ ww_cin $end
$var wire 1 A ww_s [3] $end
$var wire 1 B ww_s [2] $end
$var wire 1 C ww_s [1] $end
$var wire 1 D ww_s [0] $end
$var wire 1 E ww_cout $end
$var wire 1 F \s[0]~output_o\ $end
$var wire 1 G \s[1]~output_o\ $end
$var wire 1 H \s[2]~output_o\ $end
$var wire 1 I \s[3]~output_o\ $end
$var wire 1 J \cout~output_o\ $end
$var wire 1 K \a[0]~input_o\ $end
$var wire 1 L \b[0]~input_o\ $end
$var wire 1 M \cin~input_o\ $end
$var wire 1 N \bit0|s~0_combout\ $end
$var wire 1 O \b[1]~input_o\ $end
$var wire 1 P \a[1]~input_o\ $end
$var wire 1 Q \bit0|cout~0_combout\ $end
$var wire 1 R \bit1|s~combout\ $end
$var wire 1 S \bit1|cout~0_combout\ $end
$var wire 1 T \a[2]~input_o\ $end
$var wire 1 U \b[2]~input_o\ $end
$var wire 1 V \bit2|s~combout\ $end
$var wire 1 W \bit2|cout~0_combout\ $end
$var wire 1 X \a[3]~input_o\ $end
$var wire 1 Y \b[3]~input_o\ $end
$var wire 1 Z \bit3|s~combout\ $end
$var wire 1 [ \bit3|cout~0_combout\ $end
$upscope $end
$upscope $end
$enddefinitions $end
#0
$dumpvars
1)
0*
0/
10
x1
12
13
14
15
16
17
1@
0E
0F
1G
1H
0I
0J
0K
1L
1M
0N
1O
1P
1Q
1R
1S
0T
0U
1V
0W
0X
0Y
0Z
0[
0!
0"
1#
0$
0%
0&
1'
1(
08
09
1:
0;
0<
0=
1>
1?
0A
1B
1C
0D
0+
1,
1-
0.
$end
#40000
1!
1"
0#
1$
1&
0(
1;
0:
19
18
0?
1=
1U
0L
1X
1T
0P
1K
0R
1Z
1W
0Z
1[
1I
0G
1A
0C
1J
0I
0-
1+
1E
0A
1*
0+
#80000
0!
1%
08
1<
1Y
0X
#120000
1!
0$
0;
18
1X
0K
1N
0Q
1Z
1R
0S
0V
1I
1F
1A
1D
1G
1.
1+
1C
0H
1-
0B
0,
#160000
1$
0"
1#
0)
1;
1:
09
0@
0M
0T
1P
1K
0R
1S
1V
0W
0Z
0V
1W
1Z
1H
0G
1B
0C
0H
0I
0-
1,
0B
0A
1I
0,
0+
1A
1+
#200000
0$
1"
0#
0%
0&
0;
0:
19
0=
0<
0Y
0U
1T
0P
0K
0N
1R
0S
0Z
1V
0W
1Z
0[
0I
1G
0F
0A
1C
0D
1H
0.
1-
0+
1B
0J
1I
1,
0E
1A
0*
1+
#240000
1)
0!
1(
1@
08
1?
1L
0X
1M
0Z
1Q
0R
1S
0V
1W
0I
1Z
0A
0G
0+
0C
0H
0-
0B
1I
0,
1A
1+
#280000
0)
0(
1&
0@
0?
1=
1U
0L
0M
0Q
1V
1R
0S
0V
1H
1B
1G
1,
1C
0H
1-
0B
0,
#320000
1(
0&
1$
1?
0=
1;
1K
0U
1L
1V
0W
1Q
0R
1S
0Z
0V
1W
1H
1Z
1B
0I
0G
1,
0A
0C
0H
0-
0+
0B
1I
0,
1A
1+
#360000
0(
1)
0"
1%
0'
0?
0>
1<
1@
09
0T
1M
1Y
0O
0L
1R
0S
0Z
1[
1V
0W
1Z
0[
0V
1H
1J
0I
1G
1B
1E
0A
1C
0H
0J
1I
1-
1,
0+
1*
0B
0E
1A
0,
1+
0*
#400000
1(
1"
1'
1&
0$
1!
1?
1>
1=
0;
19
18
1X
1T
0K
1U
1O
1L
0R
1S
1W
0Z
1[
1Z
1V
1J
0I
0G
1E
0A
0C
1H
1I
1*
0-
0+
1B
1A
1,
1+
#440000
0'
0)
0%
0>
0<
0@
0M
0Y
0O
1R
0S
0Z
1N
0Q
0R
0V
1F
0I
1G
1D
0A
1C
0H
0G
1.
1-
0+
0B
0C
0-
0,
#480000
0&
1$
1#
0=
1;
1:
1P
1K
0U
1V
0W
0N
1Q
1R
0R
1S
1Z
0[
0V
1W
1G
0F
1H
0Z
1[
1C
0D
1B
0J
1I
0G
0.
1-
1,
0E
1A
0C
0H
0*
0-
1+
0B
1J
0I
0,
1E
0A
1*
0+
#520000
0$
1%
0(
0"
0;
09
0?
1<
1Y
0L
0T
0K
1V
0W
0Q
1Z
1R
0S
0Z
0V
1I
1H
1A
1B
0I
1G
1,
1+
0A
1C
0H
1-
0+
0B
0,
#560000
1"
0#
1'
0:
19
1>
1O
1T
0P
1V
1H
1B
1,
#600000
0"
1#
0'
0%
1&
1)
1:
09
0>
1=
0<
1@
1M
0Y
1U
0O
0T
1P
1Z
0[
1N
1F
0J
1I
1D
0E
1A
1.
1+
0*
#640000
1"
1(
0!
19
08
1?
1L
0X
1T
0V
1W
0Z
0N
1Q
0R
1S
1Z
1V
0F
0I
0H
0D
0A
0B
1I
0G
0.
0,
0+
1A
0C
1H
0-
1+
1B
1,
#680000
0"
1!
0#
1'
1%
0:
09
18
1>
1<
1Y
1O
1X
0T
0P
0V
1[
1J
0H
1E
0B
1*
0,
#720000
0'
0%
0&
0)
1$
0>
0=
0<
0@
1;
1K
0M
0Y
0U
0O
1R
0S
1V
0W
0Z
1Z
0[
0V
0I
1H
1G
0A
1B
1C
0H
0J
1I
1-
1,
0+
0B
0E
1A
0,
1+
0*
#760000
1'
1&
1)
0$
1"
1>
1=
1@
0;
19
1T
0K
1M
1U
1O
0R
1S
1W
0Z
1[
1V
0G
0C
1H
1J
0I
0-
1B
1E
0A
1,
0+
1*
#800000
1$
1%
0!
1#
0(
1;
1:
08
0?
1<
1Y
0L
0X
1P
1K
1R
1G
1C
1-
#840000
0#
1(
0'
0&
0)
0:
1?
0>
0=
0@
0M
0U
0O
1L
0P
0S
0V
1V
0W
1Z
0[
0H
0B
1H
0,
1B
0J
1I
1,
0E
1A
0*
1+
#880000
0(
1'
1&
0$
0%
0?
1>
1=
0<
0;
0K
0Y
1U
1O
0L
0R
1S
0V
1W
0Z
0Q
1R
0S
1Z
1V
0V
0I
0H
0G
0A
0B
0C
1H
1I
1G
0-
0,
0+
1B
1A
1C
0H
1-
1,
1+
0B
0,
#920000
1(
0&
1$
1%
1#
1)
1!
0"
1?
0=
1<
1;
1:
09
18
1@
1M
1X
0T
1P
1K
1Y
0U
1L
0R
1S
0W
1[
1N
1Q
1R
0Z
1V
1F
1J
0G
1D
1E
0C
1H
0I
1G
1.
0-
1*
1B
0A
1C
1-
1,
0+
#960000
1&
0#
0)
1"
1=
0:
19
0@
0M
1T
0P
1U
0R
1W
0N
1Z
0F
0G
0D
0C
1I
0.
0-
1A
1+
