1semestre/isd/resolucoes/enunciado4/simulation/qsim/MEF.msim.vcd
$comment
	File created using the following command:
		vcd file MEF.msim.vcd -direction
$end
$date
	Thu Dec 29 12:06:27 2022
$end
$version
	ModelSim Version 2020.1
$end
$timescale
	1ps
$end

$scope module MEF_vlg_vec_tst $end
$var reg 1 ! CLK $end
$var reg 1 " RESET_H $end
$var reg 1 # X $end
$var wire 1 $ Q [1] $end
$var wire 1 % Q [0] $end
$var wire 1 & Y $end

$scope module i1 $end
$var wire 1 ' gnd $end
$var wire 1 ( vcc $end
$var wire 1 ) unknown $end
$var tri1 1 * devclrn $end
$var tri1 1 + devpor $end
$var tri1 1 , devoe $end
$var wire 1 - Y~output_o $end
$var wire 1 . Q[1]~output_o $end
$var wire 1 / Q[0]~output_o $end
$var wire 1 0 CLK~input_o $end
$var wire 1 1 X~input_o $end
$var wire 1 2 RESET_H~input_o $end
$var wire 1 3 inst3~0_combout $end
$var wire 1 4 D0~q $end
$var wire 1 5 inst10~combout $end
$var wire 1 6 D1~q $end
$var wire 1 7 inst16~combout $end
$upscope $end
$upscope $end
$enddefinitions $end
#0
$dumpvars
0!
0"
0#
0%
0$
0&
0'
1(
x)
1*
1+
1,
0-
0.
0/
00
01
02
03
04
05
06
07
$end
#20000
1!
10
#40000
0!
00
#60000
1#
1!
11
10
13
#80000
0!
00
#100000
1!
10
14
1/
1%
15
03
#120000
0!
00
#140000
1!
10
16
04
0/
1.
1$
0%
#160000
0#
0!
01
00
13
#180000
1!
10
14
1/
1%
05
03
#200000
0!
00
#220000
1#
1!
11
10
17
13
1-
1&
06
04
0/
0.
0$
0%
07
0-
0&
#240000
0!
00
#260000
1!
10
14
1/
1%
15
03
#280000
0!
00
#300000
1!
10
16
04
0/
1.
1$
0%
#320000
0!
00
#340000
1!
10
#360000
0!
00
#380000
1!
10
#400000
0!
00
#420000
1!
10
#440000
0!
00
#460000
1!
10
#480000
0!
00
#500000
1!
10
#520000
0!
00
#540000
1!
10
#560000
0#
0!
01
00
13
#580000
1!
10
14
1/
1%
05
03
#600000
0!
00
#610000
1#
11
17
13
1-
1&
#620000
1!
10
06
0.
0$
07
15
03
0-
0&
#640000
0!
00
#660000
0#
1!
01
10
05
16
04
0/
1.
1$
0%
15
13
#680000
0!
00
#700000
1!
10
14
1/
1%
05
03
#710000
1#
11
17
13
1-
1&
#720000
0!
00
#730000
0#
01
07
03
0-
0&
#740000
1!
10
06
04
0/
0.
0$
0%
#760000
0!
00
#780000
1!
10
#800000
0!
00
#820000
1!
10
#840000
0!
00
#860000
1!
10
#880000
0!
00
#900000
1!
10
#920000
0!
00
#940000
1!
10
#960000
0!
00
#980000
1!
10
