1semestre/isd/resolucoes/enunciado2/simulation/qsim/exer1.msim.vcd
$comment
	File created using the following command:
		vcd file exer1.msim.vcd -direction
$end
$date
	Wed Dec 28 19:17:28 2022
$end
$version
	ModelSim Version 2020.1
$end
$timescale
	1ps
$end

$scope module exer1_vlg_vec_tst $end
$var reg 1 ! CLK $end
$var reg 1 " RESET_L $end
$var reg 1 # X $end
$var wire 1 $ Q [1] $end
$var wire 1 % Q [0] $end

$scope module i1 $end
$var wire 1 & gnd $end
$var wire 1 ' vcc $end
$var wire 1 ( unknown $end
$var tri1 1 ) devclrn $end
$var tri1 1 * devpor $end
$var tri1 1 + devoe $end
$var wire 1 , Q[1]~output_o $end
$var wire 1 - Q[0]~output_o $end
$var wire 1 . CLK~input_o $end
$var wire 1 / RESET_L~input_o $end
$var wire 1 0 X~input_o $end
$var wire 1 1 inst10~0_combout $end
$var wire 1 2 D0~q $end
$var wire 1 3 inst18~0_combout $end
$var wire 1 4 D1~q $end
$upscope $end
$upscope $end
$enddefinitions $end
#0
$dumpvars
0!
1"
0#
0%
0$
0&
1'
x(
1)
1*
1+
0,
0-
0.
1/
00
01
02
03
04
$end
#10000
1#
10
11
#20000
1!
1.
12
1-
1%
13
01
#40000
0!
0.
#60000
1!
1.
14
02
0-
1,
1$
0%
11
#80000
0!
0.
#100000
0#
1!
00
1.
01
12
1-
1%
11
#120000
0!
0.
#140000
1!
1.
#160000
0!
0.
#170000
1#
10
03
01
#180000
1!
1.
04
02
0-
0,
0$
0%
11
#200000
0!
0.
#220000
1!
1.
12
1-
1%
13
01
#240000
0!
0.
#260000
1!
1.
14
02
0-
1,
1$
0%
11
#280000
0!
0.
#300000
1!
1.
12
1-
1%
03
01
#320000
0!
0.
#340000
1!
1.
04
02
0-
0,
0$
0%
11
#360000
0!
0.
#380000
1!
1.
12
1-
1%
13
01
#400000
0!
0.
#420000
1!
1.
14
02
0-
1,
1$
0%
11
#440000
0#
0!
00
0.
01
#460000
1!
1.
#480000
0!
0.
#490000
0"
1#
0/
10
03
#500000
1!
1.
04
0,
0$
#510000
1"
1/
11
#520000
0!
0.
#540000
1!
1.
12
1-
1%
13
01
#550000
0"
0/
03
#560000
0!
0.
#580000
0#
1"
1!
00
1/
1.
11
02
0-
0%
01
#600000
0!
0.
#620000
1#
1!
10
1.
11
#640000
0!
0.
#660000
0#
1!
00
1.
01
12
1-
1%
11
#680000
0!
0.
#700000
1!
1.
#720000
0!
0.
#740000
1!
1.
#750000
0"
0/
01
#760000
0!
0.
#780000
1!
1.
02
0-
0%
#790000
1"
1/
#800000
0!
0.
#820000
0"
1!
0/
1.
#840000
0!
0.
#860000
1!
1.
#880000
0!
0.
#900000
1!
1.
#920000
0!
0.
#940000
1!
1.
#960000
0!
0.
#980000
1!
1.
