2semestre/lsd/aula1/parte1/simulation/qsim/GateDemo.msim.vcd
$comment
	File created using the following command:
		vcd file GateDemo.msim.vcd -direction
$end
$date
	Mon Feb 20 14:23:42 2023
$end
$version
	ModelSim Version 2020.1
$end
$timescale
	1ps
$end

$scope module GateDemo_vlg_vec_tst $end
$var reg 2 ! SW [1:0] $end
$var wire 1 " LEDR [0] $end

$scope module i1 $end
$var wire 1 # gnd $end
$var wire 1 $ vcc $end
$var wire 1 % unknown $end
$var tri1 1 & devclrn $end
$var tri1 1 ' devpor $end
$var tri1 1 ( devoe $end
$var wire 1 ) LEDR[0]~output_o $end
$var wire 1 * SW[1]~input_o $end
$var wire 1 + SW[0]~input_o $end
$var wire 1 , inst~combout $end
$upscope $end
$upscope $end
$enddefinitions $end
#0
$dumpvars
b0 !
0"
0#
1$
x%
1&
1'
1(
0)
0*
0+
0,
$end
#20000
b10 !
1*
#130000
b11 !
1+
1,
1)
1"
#160000
b1 !
0*
0,
0)
0"
#270000
b0 !
0+
#350000
b10 !
1*
#400000
b11 !
1+
1,
1)
1"
#450000
b10 !
0+
0,
0)
0"
#520000
b0 !
0*
#580000
b1 !
b11 !
1+
1*
1,
1)
1"
#640000
b10 !
b0 !
0+
0*
0,
0)
0"
#730000
b1 !
1+
#770000
b11 !
1*
1,
1)
1"
#870000
b1 !
0*
0,
0)
0"
#920000
b0 !
0+
