1semestre/isd/praticas/piso/simulation/qsim/piso.msim.vcd
$comment
	File created using the following command:
		vcd file piso.msim.vcd -direction
$end
$date
	Tue Jan 03 18:56:34 2023
$end
$version
	ModelSim Version 2020.1
$end
$timescale
	1ps
$end

$scope module piso_vlg_vec_tst $end
$var reg 1 ! A $end
$var reg 1 " B $end
$var reg 1 # C $end
$var reg 1 $ CLK $end
$var reg 1 % SHIFT $end
$var reg 1 & SIN $end
$var wire 1 ' Q [2] $end
$var wire 1 ( Q [1] $end
$var wire 1 ) Q [0] $end

$scope module i1 $end
$var wire 1 * gnd $end
$var wire 1 + vcc $end
$var wire 1 , unknown $end
$var tri1 1 - devclrn $end
$var tri1 1 . devpor $end
$var tri1 1 / devoe $end
$var wire 1 0 Q[2]~output_o $end
$var wire 1 1 Q[1]~output_o $end
$var wire 1 2 Q[0]~output_o $end
$var wire 1 3 CLK~input_o $end
$var wire 1 4 SIN~input_o $end
$var wire 1 5 A~input_o $end
$var wire 1 6 SHIFT~input_o $end
$var wire 1 7 inst5~0_combout $end
$var wire 1 8 inst~q $end
$var wire 1 9 B~input_o $end
$var wire 1 : inst8~0_combout $end
$var wire 1 ; inst1~q $end
$var wire 1 < C~input_o $end
$var wire 1 = inst11~0_combout $end
$var wire 1 > inst2 [2] $end
$var wire 1 ? inst2 [1] $end
$var wire 1 @ inst2 [0] $end
$upscope $end
$upscope $end
$enddefinitions $end
#0
$dumpvars
1!
0"
1#
0$
0%
0&
0)
0(
0'
0*
1+
x,
1-
1.
1/
00
01
02
03
04
15
06
17
08
09
0:
0;
1<
1=
0@
0?
0>
$end
#20000
1$
13
18
1@
1?
1>
10
11
12
1)
1(
1'
#40000
0!
0$
05
03
07
#60000
1$
13
08
#80000
1%
1&
1!
0$
16
14
15
03
0=
17
#100000
1$
13
18
0@
0?
0>
00
01
02
0)
0(
0'
1:
#120000
0&
0!
0$
04
05
03
07
#140000
1$
13
1;
08
1=
0:
#160000
1&
0$
14
03
17
#180000
1$
13
0;
18
1@
1?
1>
10
11
12
1)
1(
1'
0=
1:
#200000
0$
03
#220000
1$
13
1;
0@
0?
0>
00
01
02
0)
0(
0'
1=
#240000
0&
0$
04
03
07
#260000
1$
13
08
1@
1?
1>
10
11
12
1)
1(
1'
0:
#280000
0$
03
#300000
1$
13
0;
0=
#320000
0$
03
#340000
1$
13
0@
0?
0>
00
01
02
0)
0(
0'
#360000
0$
03
#380000
1$
13
#400000
0$
03
#420000
1$
13
#440000
0$
03
#460000
1$
13
#480000
0$
03
#500000
1$
13
#520000
0$
03
#540000
1$
13
#560000
0$
03
#580000
1$
13
#600000
0$
03
#620000
1$
13
#640000
0$
03
#660000
1$
13
#680000
0$
03
#700000
1$
13
#720000
0$
03
#740000
1$
13
#760000
0$
03
#780000
1$
13
#800000
0$
03
#820000
1$
13
#840000
0$
03
#860000
1$
13
#880000
0$
03
#900000
1$
13
#920000
0$
03
#940000
1$
13
#960000
0$
03
#980000
1$
13
#990000
0%
06
1=
