1semestre/isd/resolucoes/contador/simulation/qsim/SpecialCount.msim.vcd
$comment
	File created using the following command:
		vcd file SpecialCount.msim.vcd -direction
$end
$date
	Wed Jan 04 10:13:01 2023
$end
$version
	ModelSim Version 2020.1
$end
$timescale
	1ps
$end

$scope module SpecialCount_vlg_vec_tst $end
$var reg 1 ! CLK $end
$var reg 1 " M $end
$var wire 1 # Q [3] $end
$var wire 1 $ Q [2] $end
$var wire 1 % Q [1] $end
$var wire 1 & Q [0] $end

$scope module i1 $end
$var wire 1 ' gnd $end
$var wire 1 ( vcc $end
$var wire 1 ) unknown $end
$var tri1 1 * devclrn $end
$var tri1 1 + devpor $end
$var tri1 1 , devoe $end
$var wire 1 - Q[3]~output_o $end
$var wire 1 . Q[2]~output_o $end
$var wire 1 / Q[1]~output_o $end
$var wire 1 0 Q[0]~output_o $end
$var wire 1 1 CLK~input_o $end
$var wire 1 2 inst|sub|34~0_combout $end
$var wire 1 3 inst|sub|34~q $end
$var wire 1 4 M~input_o $end
$var wire 1 5 inst|sub|115~combout $end
$var wire 1 6 inst|sub|111~q $end
$var wire 1 7 inst7~0_combout $end
$var wire 1 8 inst|sub|126~combout $end
$var wire 1 9 inst|sub|122~q $end
$var wire 1 : inst|sub|137~0_combout $end
$var wire 1 ; inst|sub|137~combout $end
$var wire 1 < inst|sub|134~q $end
$upscope $end
$upscope $end
$enddefinitions $end
#0
$dumpvars
0!
0"
0&
0%
0$
0#
0'
1(
x)
1*
1+
1,
0-
0.
0/
00
01
12
03
04
05
06
17
08
09
0:
0;
0<
$end
#20000
1!
11
13
10
1&
15
02
#40000
0!
01
#60000
1!
11
16
03
00
1/
1%
0&
12
#80000
0!
01
#100000
1!
11
13
10
1&
18
05
02
#120000
0!
01
#140000
1!
11
19
06
03
00
0/
1.
1$
0%
0&
12
#160000
0!
01
#180000
1!
11
13
10
1&
15
02
#200000
0!
01
#220000
1!
11
16
03
00
1/
1:
1%
0&
12
#240000
0!
01
#260000
1!
11
13
10
1&
1;
08
05
02
#280000
0!
01
#300000
1!
11
1<
09
06
03
00
0/
0.
1-
0:
07
1#
0$
0%
0&
12
#320000
0!
01
#340000
1!
11
13
10
1&
0;
02
#360000
0!
01
#380000
1!
11
0<
03
00
0-
17
0#
0&
12
#400000
0!
01
#420000
1"
1!
14
11
13
10
1&
15
02
#440000
0!
01
#460000
1!
11
16
03
00
1/
1%
0&
12
#480000
0!
01
#500000
1!
11
13
10
1&
18
05
02
#520000
0!
01
#540000
1!
11
19
06
03
00
0/
1.
1$
0%
0&
12
#560000
0!
01
#580000
1!
11
13
10
1&
15
02
#600000
0!
01
#620000
1!
11
16
03
00
1/
07
1%
0&
12
#640000
0!
01
#660000
1!
11
13
10
1&
08
05
02
#680000
0!
01
#700000
1!
11
09
06
03
00
0/
0.
17
0$
0%
0&
12
#720000
0!
01
#740000
1!
11
13
10
1&
15
02
#760000
0!
01
#780000
1!
11
16
03
00
1/
1%
0&
12
#800000
0!
01
#820000
1!
11
13
10
1&
18
05
02
#840000
0!
01
#860000
1!
11
19
06
03
00
0/
1.
1$
0%
0&
12
#880000
0!
01
#900000
1!
11
13
10
1&
15
02
#920000
0!
01
#930000
0"
04
#940000
1!
11
16
03
00
1/
1:
1%
0&
12
#960000
0!
01
#980000
1!
11
13
10
1&
1;
08
05
02
