1semestre/isd/praticas/negativep/simulation/qsim/frio.msim.vcd
$comment
	File created using the following command:
		vcd file frio.msim.vcd -direction
$end
$date
	Tue Jan 03 15:48:24 2023
$end
$version
	ModelSim Version 2020.1
$end
$timescale
	1ps
$end

$scope module frio_vlg_vec_tst $end
$var reg 1 ! CLK $end
$var wire 1 " P [7] $end
$var wire 1 # P [6] $end
$var wire 1 $ P [5] $end
$var wire 1 % P [4] $end
$var wire 1 & P [3] $end
$var wire 1 ' P [2] $end
$var wire 1 ( P [1] $end
$var wire 1 ) P [0] $end

$scope module i1 $end
$var wire 1 * gnd $end
$var wire 1 + vcc $end
$var wire 1 , unknown $end
$var tri1 1 - devclrn $end
$var tri1 1 . devpor $end
$var tri1 1 / devoe $end
$var wire 1 0 P[7]~output_o $end
$var wire 1 1 P[6]~output_o $end
$var wire 1 2 P[5]~output_o $end
$var wire 1 3 P[4]~output_o $end
$var wire 1 4 P[3]~output_o $end
$var wire 1 5 P[2]~output_o $end
$var wire 1 6 P[1]~output_o $end
$var wire 1 7 P[0]~output_o $end
$var wire 1 8 CLK~input_o $end
$var wire 1 9 inst|inst~0_combout $end
$var wire 1 : inst|inst~q $end
$var wire 1 ; inst2|22~combout $end
$var wire 1 < inst2|15~combout $end
$upscope $end
$upscope $end
$enddefinitions $end
#0
$dumpvars
0!
0)
1(
1'
1&
1%
1$
1#
1"
0*
1+
x,
1-
1.
1/
10
11
12
13
14
15
16
07
08
19
0:
0;
0<
$end
#5000
1!
18
1<
17
1)
1:
09
#10000
0!
08
1;
00
0"
#15000
1!
18
0;
10
1"
0:
19
#20000
0!
08
0<
07
0)
#25000
1!
18
1<
17
1)
1:
09
#30000
0!
08
1;
00
0"
#35000
1!
18
0;
10
1"
0:
19
#40000
0!
08
0<
07
0)
#45000
1!
18
1<
17
1)
1:
09
#50000
0!
08
1;
00
0"
#55000
1!
18
0;
10
1"
0:
19
#60000
0!
08
0<
07
0)
#65000
1!
18
1<
17
1)
1:
09
#70000
0!
08
1;
00
0"
#75000
1!
18
0;
10
1"
0:
19
#80000
0!
08
0<
07
0)
#85000
1!
18
1<
17
1)
1:
09
#90000
0!
08
1;
00
0"
#95000
1!
18
0;
10
1"
0:
19
#100000
0!
08
0<
07
0)
#105000
1!
18
1<
17
1)
1:
09
#110000
0!
08
1;
00
0"
#115000
1!
18
0;
10
1"
0:
19
#120000
0!
08
0<
07
0)
#125000
1!
18
1<
17
1)
1:
09
#130000
0!
08
1;
00
0"
#135000
1!
18
0;
10
1"
0:
19
#140000
0!
08
0<
07
0)
#145000
1!
18
1<
17
1)
1:
09
#150000
0!
08
1;
00
0"
#155000
1!
18
0;
10
1"
0:
19
#160000
0!
08
0<
07
0)
#165000
1!
18
1<
17
1)
1:
09
#170000
0!
08
1;
00
0"
#175000
1!
18
0;
10
1"
0:
19
#180000
0!
08
0<
07
0)
#185000
1!
18
1<
17
1)
1:
09
#190000
0!
08
1;
00
0"
#195000
1!
18
0;
10
1"
0:
19
#200000
0!
08
0<
07
0)
#205000
1!
18
1<
17
1)
1:
09
#210000
0!
08
1;
00
0"
#215000
1!
18
0;
10
1"
0:
19
#220000
0!
08
0<
07
0)
#225000
1!
18
1<
17
1)
1:
09
#230000
0!
08
1;
00
0"
#235000
1!
18
0;
10
1"
0:
19
#240000
0!
08
0<
07
0)
#245000
1!
18
1<
17
1)
1:
09
#250000
0!
08
1;
00
0"
#255000
1!
18
0;
10
1"
0:
19
#260000
0!
08
0<
07
0)
#265000
1!
18
1<
17
1)
1:
09
#270000
0!
08
1;
00
0"
#275000
1!
18
0;
10
1"
0:
19
#280000
0!
08
0<
07
0)
#285000
1!
18
1<
17
1)
1:
09
#290000
0!
08
1;
00
0"
#295000
1!
18
0;
10
1"
0:
19
#300000
0!
08
0<
07
0)
#305000
1!
18
1<
17
1)
1:
09
#310000
0!
08
1;
00
0"
#315000
1!
18
0;
10
1"
0:
19
#320000
0!
08
0<
07
0)
#325000
1!
18
1<
17
1)
1:
09
#330000
0!
08
1;
00
0"
#335000
1!
18
0;
10
1"
0:
19
#340000
0!
08
0<
07
0)
#345000
1!
18
1<
17
1)
1:
09
#350000
0!
08
1;
00
0"
#355000
1!
18
0;
10
1"
0:
19
#360000
0!
08
0<
07
0)
#365000
1!
18
1<
17
1)
1:
09
#370000
0!
08
1;
00
0"
#375000
1!
18
0;
10
1"
0:
19
#380000
0!
08
0<
07
0)
#385000
1!
18
1<
17
1)
1:
09
#390000
0!
08
1;
00
0"
#395000
1!
18
0;
10
1"
0:
19
#400000
0!
08
0<
07
0)
#405000
1!
18
1<
17
1)
1:
09
#410000
0!
08
1;
00
0"
#415000
1!
18
0;
10
1"
0:
19
#420000
0!
08
0<
07
0)
#425000
1!
18
1<
17
1)
1:
09
#430000
0!
08
1;
00
0"
#435000
1!
18
0;
10
1"
0:
19
#440000
0!
08
0<
07
0)
#445000
1!
18
1<
17
1)
1:
09
#450000
0!
08
1;
00
0"
#455000
1!
18
0;
10
1"
0:
19
#460000
0!
08
0<
07
0)
#465000
1!
18
1<
17
1)
1:
09
#470000
0!
08
1;
00
0"
#475000
1!
18
0;
10
1"
0:
19
#480000
0!
08
0<
07
0)
#485000
1!
18
1<
17
1)
1:
09
#490000
0!
08
1;
00
0"
#495000
1!
18
0;
10
1"
0:
19
#500000
0!
08
0<
07
0)
#505000
1!
18
1<
17
1)
1:
09
#510000
0!
08
1;
00
0"
#515000
1!
18
0;
10
1"
0:
19
#520000
0!
08
0<
07
0)
#525000
1!
18
1<
17
1)
1:
09
#530000
0!
08
1;
00
0"
#535000
1!
18
0;
10
1"
0:
19
#540000
0!
08
0<
07
0)
#545000
1!
18
1<
17
1)
1:
09
#550000
0!
08
1;
00
0"
#555000
1!
18
0;
10
1"
0:
19
#560000
0!
08
0<
07
0)
#565000
1!
18
1<
17
1)
1:
09
#570000
0!
08
1;
00
0"
#575000
1!
18
0;
10
1"
0:
19
#580000
0!
08
0<
07
0)
#585000
1!
18
1<
17
1)
1:
09
#590000
0!
08
1;
00
0"
#595000
1!
18
0;
10
1"
0:
19
#600000
0!
08
0<
07
0)
#605000
1!
18
1<
17
1)
1:
09
#610000
0!
08
1;
00
0"
#615000
1!
18
0;
10
1"
0:
19
#620000
0!
08
0<
07
0)
#625000
1!
18
1<
17
1)
1:
09
#630000
0!
08
1;
00
0"
#635000
1!
18
0;
10
1"
0:
19
#640000
0!
08
0<
07
0)
#645000
1!
18
1<
17
1)
1:
09
#650000
0!
08
1;
00
0"
#655000
1!
18
0;
10
1"
0:
19
#660000
0!
08
0<
07
0)
#665000
1!
18
1<
17
1)
1:
09
#670000
0!
08
1;
00
0"
#675000
1!
18
0;
10
1"
0:
19
#680000
0!
08
0<
07
0)
#685000
1!
18
1<
17
1)
1:
09
#690000
0!
08
1;
00
0"
#695000
1!
18
0;
10
1"
0:
19
#700000
0!
08
0<
07
0)
#705000
1!
18
1<
17
1)
1:
09
#710000
0!
08
1;
00
0"
#715000
1!
18
0;
10
1"
0:
19
#720000
0!
08
0<
07
0)
#725000
1!
18
1<
17
1)
1:
09
#730000
0!
08
1;
00
0"
#735000
1!
18
0;
10
1"
0:
19
#740000
0!
08
0<
07
0)
#745000
1!
18
1<
17
1)
1:
09
#750000
0!
08
1;
00
0"
#755000
1!
18
0;
10
1"
0:
19
#760000
0!
08
0<
07
0)
#765000
1!
18
1<
17
1)
1:
09
#770000
0!
08
1;
00
0"
#775000
1!
18
0;
10
1"
0:
19
#780000
0!
08
0<
07
0)
#785000
1!
18
1<
17
1)
1:
09
#790000
0!
08
1;
00
0"
#795000
1!
18
0;
10
1"
0:
19
#800000
0!
08
0<
07
0)
#805000
1!
18
1<
17
1)
1:
09
#810000
0!
08
1;
00
0"
#815000
1!
18
0;
10
1"
0:
19
#820000
0!
08
0<
07
0)
#825000
1!
18
1<
17
1)
1:
09
#830000
0!
08
1;
00
0"
#835000
1!
18
0;
10
1"
0:
19
#840000
0!
08
0<
07
0)
#845000
1!
18
1<
17
1)
1:
09
#850000
0!
08
1;
00
0"
#855000
1!
18
0;
10
1"
0:
19
#860000
0!
08
0<
07
0)
#865000
1!
18
1<
17
1)
1:
09
#870000
0!
08
1;
00
0"
#875000
1!
18
0;
10
1"
0:
19
#880000
0!
08
0<
07
0)
#885000
1!
18
1<
17
1)
1:
09
#890000
0!
08
1;
00
0"
#895000
1!
18
0;
10
1"
0:
19
#900000
0!
08
0<
07
0)
#905000
1!
18
1<
17
1)
1:
09
#910000
0!
08
1;
00
0"
#915000
1!
18
0;
10
1"
0:
19
#920000
0!
08
0<
07
0)
#925000
1!
18
1<
17
1)
1:
09
#930000
0!
08
1;
00
0"
#935000
1!
18
0;
10
1"
0:
19
#940000
0!
08
0<
07
0)
#945000
1!
18
1<
17
1)
1:
09
#950000
0!
08
1;
00
0"
#955000
1!
18
0;
10
1"
0:
19
#960000
0!
08
0<
07
0)
#965000
1!
18
1<
17
1)
1:
09
#970000
0!
08
1;
00
0"
#975000
1!
18
0;
10
1"
0:
19
#980000
0!
08
0<
07
0)
#985000
1!
18
1<
17
1)
1:
09
#990000
0!
08
1;
00
0"
#995000
1!
18
0;
10
1"
0:
19
